/home/jm/Documents/Semester 3/Software Entwicklung mit Open Source/Aufgabenblatt5/praktikum/src/test/java/de/hfu/BaseResidentServiceEasyMockTest.java
/home/jm/Documents/Semester 3/Software Entwicklung mit Open Source/Aufgabenblatt5/praktikum/src/test/java/de/hfu/AppTest.java
/home/jm/Documents/Semester 3/Software Entwicklung mit Open Source/Aufgabenblatt5/praktikum/src/test/java/de/hfu/UtilTest.java
/home/jm/Documents/Semester 3/Software Entwicklung mit Open Source/Aufgabenblatt5/praktikum/src/test/java/de/hfu/ResidentRepositoryStub.java
/home/jm/Documents/Semester 3/Software Entwicklung mit Open Source/Aufgabenblatt5/praktikum/src/test/java/de/hfu/QueueTest.java
/home/jm/Documents/Semester 3/Software Entwicklung mit Open Source/Aufgabenblatt5/praktikum/src/test/java/de/hfu/BaseResidentServiceTest.java
